%YAML 1.1
%TAG !u! tag:unity3d.com,2011:
--- !u!1 &5882992021993506199
GameObject:
  m_ObjectHideFlags: 0
  m_CorrespondingSourceObject: {fileID: 0}
  m_PrefabInstance: {fileID: 0}
  m_PrefabAsset: {fileID: 0}
  serializedVersion: 6
  m_Component:
  - component: {fileID: 5882992021993506184}
  m_Layer: 0
  m_Name: Shadow
  m_TagString: Shadow
  m_Icon: {fileID: 0}
  m_NavMeshLayer: 0
  m_StaticEditorFlags: 0
  m_IsActive: 1
--- !u!4 &5882992021993506184
Transform:
  m_ObjectHideFlags: 0
  m_CorrespondingSourceObject: {fileID: 0}
  m_PrefabInstance: {fileID: 0}
  m_PrefabAsset: {fileID: 0}
  m_GameObject: {fileID: 5882992021993506199}
  m_LocalRotation: {x: 0, y: 0, z: 0, w: 1}
  m_LocalPosition: {x: 0.27, y: 1.48, z: -3.09}
  m_LocalScale: {x: 1, y: 1, z: 1}
  m_Children:
  - {fileID: 5554585137163920638}
  m_Father: {fileID: 0}
  m_RootOrder: 0
  m_LocalEulerAnglesHint: {x: 0, y: 0, z: 0}
--- !u!1001 &9113204559786581138
PrefabInstance:
  m_ObjectHideFlags: 0
  serializedVersion: 2
  m_Modification:
    m_TransformParent: {fileID: 5882992021993506184}
    m_Modifications:
    - target: {fileID: 3448646052410526354, guid: 3199f25f046bedd45ad3da3f35cacca4,
        type: 3}
      propertyPath: m_Materials.Array.data[0]
      value: 
      objectReference: {fileID: 2100000, guid: cfd647b9a66901b41ad0b8540b3fee16, type: 2}
    - target: {fileID: 3448646052410526364, guid: 3199f25f046bedd45ad3da3f35cacca4,
        type: 3}
      propertyPath: m_LocalScale.z
      value: 0.5
      objectReference: {fileID: 0}
    - target: {fileID: 3705691202308110444, guid: 3199f25f046bedd45ad3da3f35cacca4,
        type: 3}
      propertyPath: m_LocalPosition.x
      value: 0
      objectReference: {fileID: 0}
    - target: {fileID: 3705691202308110444, guid: 3199f25f046bedd45ad3da3f35cacca4,
        type: 3}
      propertyPath: m_LocalPosition.y
      value: 0
      objectReference: {fileID: 0}
    - target: {fileID: 3705691202308110444, guid: 3199f25f046bedd45ad3da3f35cacca4,
        type: 3}
      propertyPath: m_LocalPosition.z
      value: 0
      objectReference: {fileID: 0}
    - target: {fileID: 3705691202308110444, guid: 3199f25f046bedd45ad3da3f35cacca4,
        type: 3}
      propertyPath: m_LocalRotation.x
      value: 0
      objectReference: {fileID: 0}
    - target: {fileID: 3705691202308110444, guid: 3199f25f046bedd45ad3da3f35cacca4,
        type: 3}
      propertyPath: m_LocalRotation.y
      value: 0
      objectReference: {fileID: 0}
    - target: {fileID: 3705691202308110444, guid: 3199f25f046bedd45ad3da3f35cacca4,
        type: 3}
      propertyPath: m_LocalRotation.z
      value: 0
      objectReference: {fileID: 0}
    - target: {fileID: 3705691202308110444, guid: 3199f25f046bedd45ad3da3f35cacca4,
        type: 3}
      propertyPath: m_LocalRotation.w
      value: 1
      objectReference: {fileID: 0}
    - target: {fileID: 3705691202308110444, guid: 3199f25f046bedd45ad3da3f35cacca4,
        type: 3}
      propertyPath: m_RootOrder
      value: 0
      objectReference: {fileID: 0}
    - target: {fileID: 3705691202308110444, guid: 3199f25f046bedd45ad3da3f35cacca4,
        type: 3}
      propertyPath: m_LocalEulerAnglesHint.x
      value: 0
      objectReference: {fileID: 0}
    - target: {fileID: 3705691202308110444, guid: 3199f25f046bedd45ad3da3f35cacca4,
        type: 3}
      propertyPath: m_LocalEulerAnglesHint.y
      value: 0
      objectReference: {fileID: 0}
    - target: {fileID: 3705691202308110444, guid: 3199f25f046bedd45ad3da3f35cacca4,
        type: 3}
      propertyPath: m_LocalEulerAnglesHint.z
      value: 0
      objectReference: {fileID: 0}
    - target: {fileID: 3713729651101562078, guid: 3199f25f046bedd45ad3da3f35cacca4,
        type: 3}
      propertyPath: m_Orthographic
      value: 1
      objectReference: {fileID: 0}
    - target: {fileID: 5548421169133814495, guid: 3199f25f046bedd45ad3da3f35cacca4,
        type: 3}
      propertyPath: m_Name
      value: CubeHolder
      objectReference: {fileID: 0}
    - target: {fileID: 5548421169133814495, guid: 3199f25f046bedd45ad3da3f35cacca4,
        type: 3}
      propertyPath: m_TagString
      value: Shadow
      objectReference: {fileID: 0}
    m_RemovedComponents:
    - {fileID: 3448646052410526355, guid: 3199f25f046bedd45ad3da3f35cacca4, type: 3}
    - {fileID: 9113204559841660870, guid: 3199f25f046bedd45ad3da3f35cacca4, type: 3}
  m_SourcePrefab: {fileID: 100100000, guid: 3199f25f046bedd45ad3da3f35cacca4, type: 3}
--- !u!4 &5554585137163920638 stripped
Transform:
  m_CorrespondingSourceObject: {fileID: 3705691202308110444, guid: 3199f25f046bedd45ad3da3f35cacca4,
    type: 3}
  m_PrefabInstance: {fileID: 9113204559786581138}
  m_PrefabAsset: {fileID: 0}
