%YAML 1.1
%TAG !u! tag:unity3d.com,2011:
--- !u!114 &11400000
MonoBehaviour:
  m_ObjectHideFlags: 0
  m_CorrespondingSourceObject: {fileID: 0}
  m_PrefabInstance: {fileID: 0}
  m_PrefabAsset: {fileID: 0}
  m_GameObject: {fileID: 0}
  m_Enabled: 1
  m_EditorHideFlags: 0
  m_Script: {fileID: 11500000, guid: c2109f610b8d2c143b8d77b0e252d8c9, type: 3}
  m_Name: Presset1
  m_EditorClassIdentifier: 
  Pressets:
  - Scales:
    - 1
    - 1
    - 1
    - 1
    - 1
    Obstacles:
    - {fileID: 5739807912567451861, guid: 0da59723e79af1d46b88c00514ce296c, type: 3}
    AmountOfObstacles: 1
  - Scales:
    - 1
    - 1
    - 1
    - 1
    - 1
    Obstacles:
    - {fileID: 5739807912567451861, guid: 0da59723e79af1d46b88c00514ce296c, type: 3}
    AmountOfObstacles: 1
  - Scales:
    - 1
    - 1
    - 1
    - 1
    - 1
    Obstacles:
    - {fileID: 5739807912567451861, guid: 0da59723e79af1d46b88c00514ce296c, type: 3}
    AmountOfObstacles: 1
  - Scales:
    - 1
    - 1
    - 1
    - 1
    - 1
    Obstacles:
    - {fileID: 5739807912567451861, guid: 0da59723e79af1d46b88c00514ce296c, type: 3}
    AmountOfObstacles: 1
  - Scales:
    - 1
    - 1
    - 1
    - 1
    - 1
    Obstacles:
    - {fileID: 5739807912567451861, guid: 0da59723e79af1d46b88c00514ce296c, type: 3}
    AmountOfObstacles: 1
  - Scales:
    - 1
    - 1
    - 1
    - 1
    - 1
    Obstacles:
    - {fileID: 5739807912567451861, guid: 0da59723e79af1d46b88c00514ce296c, type: 3}
    AmountOfObstacles: 1
  - Scales:
    - 1
    - 1
    - 1
    - 1
    - 1
    Obstacles:
    - {fileID: 5739807912567451861, guid: 0da59723e79af1d46b88c00514ce296c, type: 3}
    AmountOfObstacles: 1
  - Scales:
    - 1
    - 1
    - 1
    - 1
    - 1
    Obstacles:
    - {fileID: 5739807912567451861, guid: 0da59723e79af1d46b88c00514ce296c, type: 3}
    AmountOfObstacles: 1
  - Scales:
    - 1
    - 1
    - 1
    - 1
    - 1
    Obstacles:
    - {fileID: 5739807912567451861, guid: 0da59723e79af1d46b88c00514ce296c, type: 3}
    AmountOfObstacles: 1
  - Scales:
    - 1
    - 1
    - 1
    - 1
    - 1
    Obstacles:
    - {fileID: 5739807912567451861, guid: 0da59723e79af1d46b88c00514ce296c, type: 3}
    AmountOfObstacles: 1
  Prefab: {fileID: -2837191230371656407, guid: 110993163b0e48142bfe926a3dc702c6, type: 3}
